{
    "Items": [
        {
            "Id": "faa26403-2225-45ac-9256-b97c86d3e569",
            "ParameterValues": [
                {
                    "Id": "ed0cdad7-2478-4ca4-9520-e913ba3dd49b",
                    "Value": 2
                },
                {
                    "Id": "b0361471-8496-420a-a4ce-8b8aea716d83",
                    "Value": 8
                },
                {
                    "Id": "7f92364a-e7d6-446c-948c-192823ce4c6f",
                    "Value": 8
                },
                {
                    "Id": "34e7bfc2-6dd4-4498-986a-5ad5a05be628",
                    "Value": 7
                }
            ]
        },
        {
            "Id": "0f008430-29f3-40bd-bb6a-bd79a8b46be6",
            "ParameterValues": [
                {
                    "Id": "ed0cdad7-2478-4ca4-9520-e913ba3dd49b",
                    "Value": 7
                },
                {
                    "Id": "b0361471-8496-420a-a4ce-8b8aea716d83",
                    "Value": 8
                },
                {
                    "Id": "7f92364a-e7d6-446c-948c-192823ce4c6f",
                    "Value": 8
                },
                {
                    "Id": "34e7bfc2-6dd4-4498-986a-5ad5a05be628",
                    "Value": 8
                }
            ]
        },
        {
            "Id": "28e77aec-6135-4772-868e-a85ddd66dc67",
            "ParameterValues": [
                {
                    "Id": "ed0cdad7-2478-4ca4-9520-e913ba3dd49b",
                    "Value": 9
                },
                {
                    "Id": "b0361471-8496-420a-a4ce-8b8aea716d83",
                    "Value": 5
                },
                {
                    "Id": "7f92364a-e7d6-446c-948c-192823ce4c6f",
                    "Value": 5
                },
                {
                    "Id": "34e7bfc2-6dd4-4498-986a-5ad5a05be628",
                    "Value": 6
                }
            ]
        },
        {
            "Id": "bc2ea0b9-00c9-4d3e-9fe8-612832ee28eb",
            "ParameterValues": [
                {
                    "Id": "ed0cdad7-2478-4ca4-9520-e913ba3dd49b",
                    "Value": 2
                },
                {
                    "Id": "b0361471-8496-420a-a4ce-8b8aea716d83",
                    "Value": 4
                },
                {
                    "Id": "7f92364a-e7d6-446c-948c-192823ce4c6f",
                    "Value": 1
                },
                {
                    "Id": "34e7bfc2-6dd4-4498-986a-5ad5a05be628",
                    "Value": 9
                }
            ]
        },
        {
            "Id": "29e574cb-713a-44fb-8708-f6dbfcb71a24",
            "ParameterValues": [
                {
                    "Id": "ed0cdad7-2478-4ca4-9520-e913ba3dd49b",
                    "Value": 1
                },
                {
                    "Id": "b0361471-8496-420a-a4ce-8b8aea716d83",
                    "Value": 8
                },
                {
                    "Id": "7f92364a-e7d6-446c-948c-192823ce4c6f",
                    "Value": 3
                },
                {
                    "Id": "34e7bfc2-6dd4-4498-986a-5ad5a05be628",
                    "Value": 6
                }
            ]
        },
        {
            "Id": "528db8c3-548e-4962-bb7c-68c468bd051c",
            "ParameterValues": [
                {
                    "Id": "ed0cdad7-2478-4ca4-9520-e913ba3dd49b",
                    "Value": 5
                },
                {
                    "Id": "b0361471-8496-420a-a4ce-8b8aea716d83",
                    "Value": 7
                },
                {
                    "Id": "7f92364a-e7d6-446c-948c-192823ce4c6f",
                    "Value": 4
                },
                {
                    "Id": "34e7bfc2-6dd4-4498-986a-5ad5a05be628",
                    "Value": 5
                }
            ]
        },
        {
            "Id": "0fe01304-b46a-482b-a9ae-b21449db8908",
            "ParameterValues": [
                {
                    "Id": "ed0cdad7-2478-4ca4-9520-e913ba3dd49b",
                    "Value": 3
                },
                {
                    "Id": "b0361471-8496-420a-a4ce-8b8aea716d83",
                    "Value": 4
                },
                {
                    "Id": "7f92364a-e7d6-446c-948c-192823ce4c6f",
                    "Value": 3
                },
                {
                    "Id": "34e7bfc2-6dd4-4498-986a-5ad5a05be628",
                    "Value": 1
                }
            ]
        },
        {
            "Id": "12b25c56-1a35-4850-869b-d22ddb68d34c",
            "ParameterValues": [
                {
                    "Id": "ed0cdad7-2478-4ca4-9520-e913ba3dd49b",
                    "Value": 2
                },
                {
                    "Id": "b0361471-8496-420a-a4ce-8b8aea716d83",
                    "Value": 2
                },
                {
                    "Id": "7f92364a-e7d6-446c-948c-192823ce4c6f",
                    "Value": 7
                },
                {
                    "Id": "34e7bfc2-6dd4-4498-986a-5ad5a05be628",
                    "Value": 9
                }
            ]
        },
        {
            "Id": "310bf2b2-7e96-4fb0-ac75-cffe5ebd3856",
            "ParameterValues": [
                {
                    "Id": "ed0cdad7-2478-4ca4-9520-e913ba3dd49b",
                    "Value": 7
                },
                {
                    "Id": "b0361471-8496-420a-a4ce-8b8aea716d83",
                    "Value": 1
                },
                {
                    "Id": "7f92364a-e7d6-446c-948c-192823ce4c6f",
                    "Value": 2
                },
                {
                    "Id": "34e7bfc2-6dd4-4498-986a-5ad5a05be628",
                    "Value": 6
                }
            ]
        },
        {
            "Id": "85bfaae6-732e-4bbf-a62b-e84243675848",
            "ParameterValues": [
                {
                    "Id": "ed0cdad7-2478-4ca4-9520-e913ba3dd49b",
                    "Value": 5
                },
                {
                    "Id": "b0361471-8496-420a-a4ce-8b8aea716d83",
                    "Value": 5
                },
                {
                    "Id": "7f92364a-e7d6-446c-948c-192823ce4c6f",
                    "Value": 2
                },
                {
                    "Id": "34e7bfc2-6dd4-4498-986a-5ad5a05be628",
                    "Value": 3
                }
            ]
        }
    ]
}