%YAML 1.1
%TAG !u! tag:unity3d.com,2011:
--- !u!1001 &354263233461016738
PrefabInstance:
  m_ObjectHideFlags: 0
  serializedVersion: 2
  m_Modification:
    m_TransformParent: {fileID: 0}
    m_Modifications:
    - target: {fileID: 8530211840793874501, guid: c16330e7d04a9cd4ca15f382c56b55e9,
        type: 3}
      propertyPath: m_Name
      value: BasicWindow
      objectReference: {fileID: 0}
    - target: {fileID: 8530211840793874522, guid: c16330e7d04a9cd4ca15f382c56b55e9,
        type: 3}
      propertyPath: m_LocalPosition.x
      value: 0
      objectReference: {fileID: 0}
    - target: {fileID: 8530211840793874522, guid: c16330e7d04a9cd4ca15f382c56b55e9,
        type: 3}
      propertyPath: m_LocalPosition.y
      value: 0
      objectReference: {fileID: 0}
    - target: {fileID: 8530211840793874522, guid: c16330e7d04a9cd4ca15f382c56b55e9,
        type: 3}
      propertyPath: m_LocalPosition.z
      value: 0
      objectReference: {fileID: 0}
    - target: {fileID: 8530211840793874522, guid: c16330e7d04a9cd4ca15f382c56b55e9,
        type: 3}
      propertyPath: m_LocalRotation.x
      value: -0
      objectReference: {fileID: 0}
    - target: {fileID: 8530211840793874522, guid: c16330e7d04a9cd4ca15f382c56b55e9,
        type: 3}
      propertyPath: m_LocalRotation.y
      value: -0
      objectReference: {fileID: 0}
    - target: {fileID: 8530211840793874522, guid: c16330e7d04a9cd4ca15f382c56b55e9,
        type: 3}
      propertyPath: m_LocalRotation.z
      value: -0
      objectReference: {fileID: 0}
    - target: {fileID: 8530211840793874522, guid: c16330e7d04a9cd4ca15f382c56b55e9,
        type: 3}
      propertyPath: m_LocalRotation.w
      value: 1
      objectReference: {fileID: 0}
    - target: {fileID: 8530211840793874522, guid: c16330e7d04a9cd4ca15f382c56b55e9,
        type: 3}
      propertyPath: m_RootOrder
      value: 0
      objectReference: {fileID: 0}
    - target: {fileID: 8530211840793874522, guid: c16330e7d04a9cd4ca15f382c56b55e9,
        type: 3}
      propertyPath: m_LocalEulerAnglesHint.x
      value: 0
      objectReference: {fileID: 0}
    - target: {fileID: 8530211840793874522, guid: c16330e7d04a9cd4ca15f382c56b55e9,
        type: 3}
      propertyPath: m_LocalEulerAnglesHint.y
      value: 0
      objectReference: {fileID: 0}
    - target: {fileID: 8530211840793874522, guid: c16330e7d04a9cd4ca15f382c56b55e9,
        type: 3}
      propertyPath: m_LocalEulerAnglesHint.z
      value: 0
      objectReference: {fileID: 0}
    - target: {fileID: 8530211840793874522, guid: c16330e7d04a9cd4ca15f382c56b55e9,
        type: 3}
      propertyPath: m_AnchoredPosition.x
      value: 0
      objectReference: {fileID: 0}
    - target: {fileID: 8530211840793874522, guid: c16330e7d04a9cd4ca15f382c56b55e9,
        type: 3}
      propertyPath: m_AnchoredPosition.y
      value: 0
      objectReference: {fileID: 0}
    - target: {fileID: 8530211840793874522, guid: c16330e7d04a9cd4ca15f382c56b55e9,
        type: 3}
      propertyPath: m_SizeDelta.x
      value: 0
      objectReference: {fileID: 0}
    - target: {fileID: 8530211840793874522, guid: c16330e7d04a9cd4ca15f382c56b55e9,
        type: 3}
      propertyPath: m_SizeDelta.y
      value: 0
      objectReference: {fileID: 0}
    - target: {fileID: 8530211840793874522, guid: c16330e7d04a9cd4ca15f382c56b55e9,
        type: 3}
      propertyPath: m_AnchorMin.x
      value: 0
      objectReference: {fileID: 0}
    - target: {fileID: 8530211840793874522, guid: c16330e7d04a9cd4ca15f382c56b55e9,
        type: 3}
      propertyPath: m_AnchorMin.y
      value: 0
      objectReference: {fileID: 0}
    - target: {fileID: 8530211840793874522, guid: c16330e7d04a9cd4ca15f382c56b55e9,
        type: 3}
      propertyPath: m_AnchorMax.x
      value: 1
      objectReference: {fileID: 0}
    - target: {fileID: 8530211840793874522, guid: c16330e7d04a9cd4ca15f382c56b55e9,
        type: 3}
      propertyPath: m_AnchorMax.y
      value: 1
      objectReference: {fileID: 0}
    - target: {fileID: 8530211840793874522, guid: c16330e7d04a9cd4ca15f382c56b55e9,
        type: 3}
      propertyPath: m_Pivot.x
      value: 0.5
      objectReference: {fileID: 0}
    - target: {fileID: 8530211840793874522, guid: c16330e7d04a9cd4ca15f382c56b55e9,
        type: 3}
      propertyPath: m_Pivot.y
      value: 0.5
      objectReference: {fileID: 0}
    - target: {fileID: 4401047847590569264, guid: c16330e7d04a9cd4ca15f382c56b55e9,
        type: 3}
      propertyPath: m_Material
      value: 
      objectReference: {fileID: 0}
    - target: {fileID: 4401047847590569264, guid: c16330e7d04a9cd4ca15f382c56b55e9,
        type: 3}
      propertyPath: m_sharedMaterial
      value: 
      objectReference: {fileID: 0}
    - target: {fileID: 1590031205, guid: c16330e7d04a9cd4ca15f382c56b55e9, type: 3}
      propertyPath: m_AnchorMax.x
      value: 0
      objectReference: {fileID: 0}
    - target: {fileID: 1590031205, guid: c16330e7d04a9cd4ca15f382c56b55e9, type: 3}
      propertyPath: m_AnchorMax.y
      value: 0
      objectReference: {fileID: 0}
    - target: {fileID: 222311933, guid: c16330e7d04a9cd4ca15f382c56b55e9, type: 3}
      propertyPath: m_Material
      value: 
      objectReference: {fileID: 0}
    - target: {fileID: 222311933, guid: c16330e7d04a9cd4ca15f382c56b55e9, type: 3}
      propertyPath: m_sharedMaterial
      value: 
      objectReference: {fileID: 0}
    - target: {fileID: 5513649454725715493, guid: c16330e7d04a9cd4ca15f382c56b55e9,
        type: 3}
      propertyPath: m_Material
      value: 
      objectReference: {fileID: 0}
    - target: {fileID: 5513649454725715493, guid: c16330e7d04a9cd4ca15f382c56b55e9,
        type: 3}
      propertyPath: m_sharedMaterial
      value: 
      objectReference: {fileID: 0}
    - target: {fileID: 5513649453461922305, guid: c16330e7d04a9cd4ca15f382c56b55e9,
        type: 3}
      propertyPath: m_Material
      value: 
      objectReference: {fileID: 0}
    - target: {fileID: 5513649453461922305, guid: c16330e7d04a9cd4ca15f382c56b55e9,
        type: 3}
      propertyPath: m_sharedMaterial
      value: 
      objectReference: {fileID: 0}
    - target: {fileID: 5513649453561725722, guid: c16330e7d04a9cd4ca15f382c56b55e9,
        type: 3}
      propertyPath: m_Material
      value: 
      objectReference: {fileID: 0}
    - target: {fileID: 5513649453561725722, guid: c16330e7d04a9cd4ca15f382c56b55e9,
        type: 3}
      propertyPath: m_sharedMaterial
      value: 
      objectReference: {fileID: 0}
    - target: {fileID: 5513649453526655039, guid: c16330e7d04a9cd4ca15f382c56b55e9,
        type: 3}
      propertyPath: m_Material
      value: 
      objectReference: {fileID: 0}
    - target: {fileID: 5513649453526655039, guid: c16330e7d04a9cd4ca15f382c56b55e9,
        type: 3}
      propertyPath: m_sharedMaterial
      value: 
      objectReference: {fileID: 0}
    - target: {fileID: 942875649, guid: c16330e7d04a9cd4ca15f382c56b55e9, type: 3}
      propertyPath: m_Material
      value: 
      objectReference: {fileID: 0}
    - target: {fileID: 942875649, guid: c16330e7d04a9cd4ca15f382c56b55e9, type: 3}
      propertyPath: m_sharedMaterial
      value: 
      objectReference: {fileID: 0}
    m_RemovedComponents: []
  m_SourcePrefab: {fileID: 100100000, guid: c16330e7d04a9cd4ca15f382c56b55e9, type: 3}
